BLPW_assignment
…
## 
##    8    9   10 
##  384  880 1194

STEP 2 - manipulate data

Find band numbers with multiple records (i.e.recaps) and isolate them:

blpw.all <- blpw.all %>%
            group_by(band) %>% 
            filter(n() > 1) 

blpw.all # manipulation looks ok

## # A tibble: 272 x 8
## # Groups:   band [117]
##    location band      age    mass recap  year   day month
##    <chr>    <chr>     <fct> <dbl> <fct> <dbl> <int> <dbl>
##  1 ABO-BP   195036431 HY     11.9 R      2000    18  8.00
##  2 ABO-BP   195036431 HY     11.3 R      2000     1  9.00
##  3 ABO-SI   197052092 HY     11.3 R      1996    19  8.00
##  4 ABO-SI   197052092 HY     12.3 R      1996     1  9.00
##  5 ABO-SI   197052092 HY     12.7 R      1996     4  9.00
##  6 ABO-SI   197052865 HY     11.9 R      1996    19  8.00
##  7 ABO-SI   197052865 HY     11.5 R      1996    22  8.00
##  8 ABO-SI   197052866 HY     12.0 R      1996    19  8.00
##  9 ABO-SI   197052866 HY     12.1 R      1996    22  8.00
## 10 ABO-SI   197052886 HY     11.4 R      1996    20  8.00
## # ... with 262 more rows

Set dates to same year so time stamp reads them properly, and recode dates as a single variable:

blpw.all <- blpw.all %>%
            mutate(year, year = 2000) %>% 
            mutate(date = make_date(year, month, day))

blpw.all # manipulation looks ok

## # A tibble: 272 x 9
## # Groups:   band [117]
##    location band      age    mass recap  year   day month date      
##    <chr>    <chr>     <fct> <dbl> <fct> <dbl> <int> <dbl> <date>    
##  1 ABO-BP   195036431 HY     11.9 R      2000    18  8.00 2000-08-18
##  2 ABO-BP   195036431 HY     11.3 R      2000     1  9.00 2000-09-01
##  3 ABO-SI   197052092 HY     11.3 R      2000    19  8.00 2000-08-19
##  4 ABO-SI   197052092 HY     12.3 R      2000     1  9.00 2000-09-01
##  5 ABO-SI   197052092 HY     12.7 R      2000     4  9.00 2000-09-04
##  6 ABO-SI   197052865 HY     11.9 R      2000    19  8.00 2000-08-19
##  7 ABO-SI   197052865 HY     11.5 R      2000    22  8.00 2000-08-22
##  8 ABO-SI   197052866 HY     12.0 R      2000    19  8.00 2000-08-19
##  9 ABO-SI   197052866 HY     12.1 R      2000    22  8.00 2000-08-22
## 10 ABO-SI   197052886 HY     11.4 R      2000    20  8.00 2000-08-20
## # ... with 262 more rows

See how many bands are recaps, and # of recaps for each band (not necessary for analysis, but useful):

blpw.recap.sums <- blpw.all %>%
                   group_by(band, location) %>%
                   summarize(n())

blpw.recap.sums # manipulation looks ok

## # A tibble: 119 x 3
## # Groups:   band [?]
##    band      location `n()`
##    <chr>     <chr>    <int>
##  1 195036431 ABO-BP       2
##  2 197052092 ABO-SI       3
##  3 197052865 ABO-SI       2
##  4 197052866 ABO-SI       2
##  5 197052886 ABO-SI       2
##  6 210011217 ABO-BP       2
##  7 210011262 ABO-BP       2
##  8 210011371 ABO-BP       3
##  9 210059688 ABO-BP       2
## 10 210059703 ABO-BP       2
## # ... with 109 more rows

STEP 3 - get within-band mass differences

blpw.all <- blpw.all %>% 
            group_by(band) %>% 
            mutate(rel.mass = mass - first(mass))

blpw.all # manipulation looks ok

## # A tibble: 272 x 10
## # Groups:   band [117]
##    location band   age    mass recap  year   day month date       rel.mass
##    <chr>    <chr>  <fct> <dbl> <fct> <dbl> <int> <dbl> <date>        <dbl>
##  1 ABO-BP   19503 HY     11.9 R      2000    18  8.00 2000-08-18   0     
##  2 ABO-BP   19503 HY     11.3 R      2000     1  9.00 2000-09-01  -0.600 
##  3 ABO-SI   19705 HY     11.3 R      2000    19  8.00 2000-08-19   0     
##  4 ABO-SI   19705 HY     12.3 R      2000     1  9.00 2000-09-01   1.00  
##  5 ABO-SI   19705 HY     12.7 R      2000     4  9.00 2000-09-04   1.40  
##  6 ABO-SI   19705 HY     11.9 R      2000    19  8.00 2000-08-19   0     
##  7 ABO-SI   19705 HY     11.5 R      2000    22  8.00 2000-08-22  -0.400 
##  8 ABO-SI   19705 HY     12.0 R      2000    19  8.00 2000-08-19   0     
##  9 ABO-SI   19705 HY     12.1 R      2000    22  8.00 2000-08-22   0.1000
## 10 ABO-SI   19705 HY     11.4 R      2000    20  8.00 2000-08-20   0     
## # ... with 262 more rows
…
